{
  "name": "WO_KDOC",
  "description": "Blank Process",
  "main": "SPA_KDOC\\Main.xaml",
  "dependencies": {
    "BalaReva.DataTable.Activities": "[2.0.1]",
    "BalaReva.Externals.Activities": "[4.0.3]",
    "BalaReva.ZipUnzip.Activities": "[2019.2.3]",
    "ExcelDataReader": "[3.6.0]",
    "Microsoft.Activities": "[1.0.1]",
    "Microsoft.Activities.Extensions": "[2.0.6.9]",
    "Microsoft.Extensions.Primitives": "[3.0.0]",
    "Microsoft.SqlServer.Compact": "[4.0.8876.1]",
    "SQLiteDatabaseForUiPath": "[1.0.17]",
    "UiPath.AmazonWebServices.Activities": "[1.0.0]",
    "UiPath.Excel.Activities": "[2.6.2]",
    "UiPath.Mail.Activities": "[1.5.0]",
    "UiPath.System.Activities": "[19.6.0]",
    "UiPath.UIAutomation.Activities": "[19.6.0]",
    "UiPath.WebAPI.Activities": "[1.4.3]"
  },
  "webServices": [],
  "schemaVersion": "4.0",
  "studioVersion": "19.9.2.0",
  "projectVersion": "1.0.7",
  "runtimeOptions": {
    "autoDispose": false,
    "isPausable": true,
    "requiresUserInteraction": true,
    "supportsPersistence": false,
    "excludedLoggedData": [
      "Private:*",
      "*password*"
    ],
    "executionType": "Workflow"
  },
  "designOptions": {
    "projectProfile": "Developement",
    "outputType": "Process",
    "libraryOptions": {
      "includeOriginalXaml": false,
      "privateWorkflows": []
    },
    "fileInfos": []
  },
  "arguments": {
    "input": [],
    "output": []
  },
  "expressionLanguage": "VisualBasic"
}